{
    "variants": {
        "": [
            { "model": "wildworld:block/blue_glowshroom1" },
            { "model": "wildworld:block/blue_glowshroom2" },
            { "model": "wildworld:block/blue_glowshroom3" },
            { "model": "wildworld:block/blue_glowshroom4" }
        ]
    }
}
