{
    "type": "minecraft:block",
    "pools": [
        {
            "rolls": 1,
            "entries": [
                {
                    "type": "minecraft:item",
                    "name": "wildworld:acacia_leaf_pile"
                }
            ],
            "conditions": [
                {
                    "condition": "minecraft:alternative",
                    "terms": [
                        {
                            "condition": "minecraft:match_tool",
                            "predicate": {
                                "item": "minecraft:shears"
                            }
                        },
                        {
                            "condition": "minecraft:match_tool",
                            "predicate": {
                                "enchantments": [
                                    {
                                        "enchantment": "minecraft:silk_touch",
                                        "levels": {
                                            "min": 1
                                        }
                                    }
                                ]
                            }
                        }
                    ]
                }
            ]
        }
    ]
}
