{
  "parent": "minecraft:recipes/root",
  "rewards": {
    "recipes": [
      "wildworld:acacia_leaf_pile"
    ]
  },
  "criteria": {
    "has_acacia_leaves": {
      "trigger": "minecraft:inventory_changed",
      "conditions": {
        "items": [
          {
            "item": "minecraft:acacia_leaves"
          }
        ]
      }
    },
    "has_the_recipe": {
      "trigger": "minecraft:recipe_unlocked",
      "conditions": {
        "recipe": "wildworld:acacia_leaf_pile"
      }
    }
  },
  "requirements": [
    [
      "has_acacia_leaves",
      "has_the_recipe"
    ]
  ]
}